Project 2/zxw_EEEE_220_F13/zxw_mux2to1.v/zxw_mux2to1vhdl/simulation/qsim/zxw_mux2to1.msim.vcd
$comment
	File created using the following command:
		vcd file zxw_mux2to1.msim.vcd -direction
$end
$date
	Fri Sep 13 17:48:57 2013
$end
$version
	ModelSim Version 10.1d
$end
$timescale
	1ps
$end
$scope module zxw_mux2to1_vlg_vec_tst $end
$var reg 1 ! s $end
$var reg 1 " x1 $end
$var reg 1 # x2 $end
$var wire 1 $ f $end
$var wire 1 % sampler $end
$scope module i1 $end
$var wire 1 & gnd $end
$var wire 1 ' vcc $end
$var wire 1 ( unknown $end
$var tri1 1 ) devclrn $end
$var tri1 1 * devpor $end
$var tri1 1 + devoe $end
$var wire 1 , f~output_o $end
$var wire 1 - x1~input_o $end
$var wire 1 . x2~input_o $end
$var wire 1 / s~input_o $end
$var wire 1 0 f~0_combout $end
$upscope $end
$upscope $end
$enddefinitions $end
#0
$dumpvars
0!
0"
0#
0$
x%
0&
1'
x(
1)
1*
1+
0,
0-
0.
0/
00
$end
#125000
1#
1.
0%
10
1,
1$
#250000
1"
0#
1-
0.
1%
00
0,
0$
#375000
1#
1.
0%
10
1,
1$
#500000
1!
0"
0#
1/
0-
0.
1%
00
0,
0$
#625000
1#
1.
0%
#750000
1"
0#
1-
0.
1%
10
1,
1$
#875000
1#
1.
0%
