Project 1/zxw_fpga/simulation/qsim/zeyarW_lab1.msim.vcd
$comment
	File created using the following command:
		vcd file zeyarW_lab1.msim.vcd -direction
$end
$date
	Mon Sep 09 10:46:17 2013
$end
$version
	ModelSim Version 10.1d
$end
$timescale
	1ps
$end
$scope module zeyarW_lab1_vlg_vec_tst $end
$var reg 1 ! CLOCK_50 $end
$var reg 1 " KEY [0:0] $end
$var wire 1 # LED [3] $end
$var wire 1 $ LED [2] $end
$var wire 1 % LED [1] $end
$var wire 1 & LED [0] $end
$var wire 1 ' sampler $end
$scope module i1 $end
$var wire 1 ( gnd $end
$var wire 1 ) vcc $end
$var wire 1 * unknown $end
$var tri1 1 + devclrn $end
$var tri1 1 , devpor $end
$var tri1 1 - devoe $end
$var wire 1 . inst1|altpll_component|auto_generated|wire_pll1_fbout $end
$var wire 1 / inst|counter_out[1]~26_combout $end
$var wire 1 0 inst|counter_out[3]~30_combout $end
$var wire 1 1 inst|counter_out[4]~32_combout $end
$var wire 1 2 inst|counter_out[9]~42_combout $end
$var wire 1 3 inst|counter_out[11]~46_combout $end
$var wire 1 4 inst|counter_out[13]~50_combout $end
$var wire 1 5 inst|counter_out[17]~58_combout $end
$var wire 1 6 inst|counter_out[19]~62_combout $end
$var wire 1 7 inst|counter_out[20]~64_combout $end
$var wire 1 8 CLOCK_50~input_o $end
$var wire 1 9 inst1|altpll_component|auto_generated|wire_pll1_clk[0]~clkctrl_outclk $end
$var wire 1 : KEY[0]~input_o $end
$var wire 1 ; inst|counter_out[0]~78_combout $end
$var wire 1 < inst|counter_out[1]~27 $end
$var wire 1 = inst|counter_out[2]~28_combout $end
$var wire 1 > inst|counter_out[2]~29 $end
$var wire 1 ? inst|counter_out[3]~31 $end
$var wire 1 @ inst|counter_out[4]~33 $end
$var wire 1 A inst|counter_out[5]~34_combout $end
$var wire 1 B inst|counter_out[5]~35 $end
$var wire 1 C inst|counter_out[6]~36_combout $end
$var wire 1 D inst|counter_out[6]~37 $end
$var wire 1 E inst|counter_out[7]~38_combout $end
$var wire 1 F inst|counter_out[7]~39 $end
$var wire 1 G inst|counter_out[8]~40_combout $end
$var wire 1 H inst|counter_out[8]~41 $end
$var wire 1 I inst|counter_out[9]~43 $end
$var wire 1 J inst|counter_out[10]~44_combout $end
$var wire 1 K inst|counter_out[10]~45 $end
$var wire 1 L inst|counter_out[11]~47 $end
$var wire 1 M inst|counter_out[12]~48_combout $end
$var wire 1 N inst|counter_out[12]~49 $end
$var wire 1 O inst|counter_out[13]~51 $end
$var wire 1 P inst|counter_out[14]~52_combout $end
$var wire 1 Q inst|counter_out[14]~53 $end
$var wire 1 R inst|counter_out[15]~54_combout $end
$var wire 1 S inst|counter_out[15]~55 $end
$var wire 1 T inst|counter_out[16]~56_combout $end
$var wire 1 U inst|counter_out[16]~57 $end
$var wire 1 V inst|counter_out[17]~59 $end
$var wire 1 W inst|counter_out[18]~60_combout $end
$var wire 1 X inst|counter_out[18]~61 $end
$var wire 1 Y inst|counter_out[19]~63 $end
$var wire 1 Z inst|counter_out[20]~65 $end
$var wire 1 [ inst|counter_out[21]~66_combout $end
$var wire 1 \ inst|counter_out[21]~67 $end
$var wire 1 ] inst|counter_out[22]~68_combout $end
$var wire 1 ^ inst|counter_out[22]~69 $end
$var wire 1 _ inst|counter_out[23]~70_combout $end
$var wire 1 ` inst|counter_out[23]~71 $end
$var wire 1 a inst|counter_out[24]~72_combout $end
$var wire 1 b inst|counter_out[24]~73 $end
$var wire 1 c inst|counter_out[25]~75 $end
$var wire 1 d inst|counter_out[26]~76_combout $end
$var wire 1 e inst2|LPM_MUX_component|auto_generated|result_node[3]~0_combout $end
$var wire 1 f inst|counter_out[25]~74_combout $end
$var wire 1 g inst2|LPM_MUX_component|auto_generated|result_node[2]~1_combout $end
$var wire 1 h inst2|LPM_MUX_component|auto_generated|result_node[1]~2_combout $end
$var wire 1 i inst2|LPM_MUX_component|auto_generated|result_node[0]~3_combout $end
$var wire 1 j inst|counter_out [31] $end
$var wire 1 k inst|counter_out [30] $end
$var wire 1 l inst|counter_out [29] $end
$var wire 1 m inst|counter_out [28] $end
$var wire 1 n inst|counter_out [27] $end
$var wire 1 o inst|counter_out [26] $end
$var wire 1 p inst|counter_out [25] $end
$var wire 1 q inst|counter_out [24] $end
$var wire 1 r inst|counter_out [23] $end
$var wire 1 s inst|counter_out [22] $end
$var wire 1 t inst|counter_out [21] $end
$var wire 1 u inst|counter_out [20] $end
$var wire 1 v inst|counter_out [19] $end
$var wire 1 w inst|counter_out [18] $end
$var wire 1 x inst|counter_out [17] $end
$var wire 1 y inst|counter_out [16] $end
$var wire 1 z inst|counter_out [15] $end
$var wire 1 { inst|counter_out [14] $end
$var wire 1 | inst|counter_out [13] $end
$var wire 1 } inst|counter_out [12] $end
$var wire 1 ~ inst|counter_out [11] $end
$var wire 1 !! inst|counter_out [10] $end
$var wire 1 "! inst|counter_out [9] $end
$var wire 1 #! inst|counter_out [8] $end
$var wire 1 $! inst|counter_out [7] $end
$var wire 1 %! inst|counter_out [6] $end
$var wire 1 &! inst|counter_out [5] $end
$var wire 1 '! inst|counter_out [4] $end
$var wire 1 (! inst|counter_out [3] $end
$var wire 1 )! inst|counter_out [2] $end
$var wire 1 *! inst|counter_out [1] $end
$var wire 1 +! inst|counter_out [0] $end
$var wire 1 ,! inst1|altpll_component|auto_generated|wire_pll1_clk [4] $end
$var wire 1 -! inst1|altpll_component|auto_generated|wire_pll1_clk [3] $end
$var wire 1 .! inst1|altpll_component|auto_generated|wire_pll1_clk [2] $end
$var wire 1 /! inst1|altpll_component|auto_generated|wire_pll1_clk [1] $end
$var wire 1 0! inst1|altpll_component|auto_generated|wire_pll1_clk [0] $end
$var wire 1 1! inst1|altpll_component|auto_generated|pll1_CLK_bus [4] $end
$var wire 1 2! inst1|altpll_component|auto_generated|pll1_CLK_bus [3] $end
$var wire 1 3! inst1|altpll_component|auto_generated|pll1_CLK_bus [2] $end
$var wire 1 4! inst1|altpll_component|auto_generated|pll1_CLK_bus [1] $end
$var wire 1 5! inst1|altpll_component|auto_generated|pll1_CLK_bus [0] $end
$upscope $end
$upscope $end
$enddefinitions $end
#0
$dumpvars
0!
b0 "
x&
x%
x$
x#
x'
0(
1)
x*
1+
1,
1-
x.
x/
x0
x1
x2
x3
x4
x5
x6
x7
08
x9
0:
1;
x<
x=
x>
x?
x@
xA
xB
xC
xD
xE
xF
xG
xH
xI
xJ
xK
xL
xM
xN
xO
xP
xQ
xR
xS
xT
xU
xV
xW
xX
xY
xZ
x[
x\
x]
x^
x_
x`
xa
xb
xc
xd
xe
xf
xg
xh
xi
0+!
0*!
0)!
0(!
0'!
0&!
0%!
0$!
0#!
0"!
0!!
0~
0}
0|
0{
0z
0y
0x
0w
0v
0u
0t
0s
0r
0q
0p
0o
zn
zm
zl
zk
zj
x0!
x/!
x.!
x-!
x,!
x5!
x4!
x3!
x2!
x1!
$end
#641
0S
0<
#643
0F
0B
#644
0L
0O
#645
0I
0V
#646
0?
#648
0Y
#656
0\
#657
0c
0i
#669
0`
#696
0/
#701
0e
#715
0g
#767
1@
#768
1Q
#769
1Z
1U
1N
1K
1>
#770
1X
#771
1H
1D
#793
1^
#804
1b
#843
0h
#1078
0=
0T
#1080
0C
0G
#1081
0P
0M
#1082
0W
0J
#1083
01
#1085
07
#1093
0]
#1094
0d
#1106
0a
#1204
0A
#1205
0R
#1206
00
03
04
05
0[
#1207
06
#1208
0E
02
#1230
0_
#1241
0f
#3968
0#
#4048
0%
#4087
0&
#4121
0$
#6394
1.
#10000
1!
0'
#10514
18
#16394
0.
#20000
0!
1'
#20679
08
#26394
1.
#30000
1!
0'
#30514
18
#36394
0.
#40000
0!
1'
#40679
08
#46394
1.
#50000
1!
0'
#50514
18
#56394
0.
#60000
0!
1'
#60679
08
#66394
1.
#70000
1!
0'
#70514
18
#79393
0.
#80000
0!
1'
#80679
08
#90000
1!
0'
#90514
18
#92392
1.
01!
02!
03!
04!
15!
0,!
0-!
0.!
0/!
10!
#94288
19
#100000
0!
1'
#100679
08
#102392
0.
#106831
05!
00!
#108709
09
#110000
1!
0'
#110514
18
#112392
1.
#120000
0!
1'
#120679
08
#122392
0.
#130000
1!
0'
#130514
18
#132392
1.
#140000
0!
1'
#140679
08
#142392
0.
#150000
1!
0'
#150514
18
#152392
1.
#160000
0!
1'
#160679
08
#162392
0.
#170000
1!
0'
#170514
18
#172392
1.
#180000
0!
1'
#180679
08
#182392
0.
#190000
1!
0'
#190514
18
#192392
1.
#200000
0!
1'
#200679
08
#202392
0.
#206831
15!
10!
#208727
19
#210000
1!
0'
#210464
1+!
#210514
18
#210833
0;
#211049
1/
#212392
1.
#220000
0!
1'
#220679
08
#222392
0.
#230000
1!
0'
#230514
18
#232392
1.
#240000
0!
1'
#240679
08
#242392
0.
#250000
1!
0'
#250514
18
#252392
1.
#260000
0!
1'
#260679
08
#262392
0.
#270000
1!
0'
#270514
18
#272392
1.
#280000
0!
1'
#280679
08
#282392
0.
#290000
1!
0'
#290514
18
#292392
1.
#300000
0!
1'
#300679
08
#302392
0.
#306831
05!
00!
#308709
09
#310000
1!
0'
#310514
18
#312392
1.
#320000
0!
1'
#320679
08
#322392
0.
#330000
1!
0'
#330514
18
#332392
1.
#340000
0!
1'
#340679
08
#342392
0.
#350000
1!
0'
#350514
18
#352392
1.
#360000
0!
1'
#360679
08
#362392
0.
#370000
1!
0'
#370514
18
#372392
1.
#380000
0!
1'
#380679
08
#382392
0.
#390000
1!
0'
#390514
18
#392392
1.
#400000
0!
1'
#400679
08
#402392
0.
#406831
15!
10!
#408727
19
#410000
1!
0'
#410464
1*!
0+!
#410514
18
#410817
1;
#412392
1.
#420000
0!
1'
#420679
08
#422392
0.
#430000
1!
0'
#430514
18
#432392
1.
#440000
0!
1'
#440679
08
#442392
0.
#450000
1!
0'
#450514
18
#452392
1.
#460000
0!
1'
#460679
08
#462392
0.
#470000
1!
0'
#470514
18
#472392
1.
#480000
0!
1'
#480679
08
#482392
0.
#490000
1!
0'
#490514
18
#492392
1.
#500000
0!
1'
#500679
08
#502392
0.
#506831
05!
00!
#508709
09
#510000
1!
0'
#510514
18
#512392
1.
#520000
0!
1'
#520679
08
#522392
0.
#530000
1!
0'
#530514
18
#532392
1.
#540000
0!
1'
#540679
08
#542392
0.
#550000
1!
0'
#550514
18
#552392
1.
#560000
0!
1'
#560679
08
#562392
0.
#570000
1!
0'
#570514
18
#572392
1.
#580000
0!
1'
#580679
08
#582392
0.
#590000
1!
0'
#590514
18
#592392
1.
#600000
0!
1'
#600679
08
#602392
0.
#606831
15!
10!
#608727
19
#610000
1!
0'
#610464
1+!
#610514
18
#610833
0;
#611074
0/
#611151
1<
#611606
1=
#612392
1.
#620000
0!
1'
#620679
08
#622392
0.
#630000
1!
0'
#630514
18
#632392
1.
#640000
0!
1'
#640679
08
#642392
0.
#650000
1!
0'
#650514
18
#652392
1.
#660000
0!
1'
#660679
08
#662392
0.
#670000
1!
0'
#670514
18
#672392
1.
#680000
0!
1'
#680679
08
#682392
0.
#690000
1!
0'
#690514
18
#692392
1.
#700000
0!
1'
#700679
08
#702392
0.
#706831
05!
00!
#708709
09
#710000
1!
0'
#710514
18
#712392
1.
#720000
0!
1'
#720679
08
#722392
0.
#730000
1!
0'
#730514
18
#732392
1.
#740000
0!
1'
#740679
08
#742392
0.
#750000
1!
0'
#750514
18
#752392
1.
#760000
0!
1'
#760679
08
#762392
0.
#770000
1!
0'
#770514
18
#772392
1.
#780000
0!
1'
#780679
08
#782392
0.
#790000
1!
0'
#790514
18
#792392
1.
#800000
0!
1'
#800679
08
#802392
0.
#806831
15!
10!
#808727
19
#810000
1!
0'
#810464
0*!
0+!
1)!
#810514
18
#810817
1;
#811024
0>
#811079
0=
#811105
0<
#811163
1>
#811560
1=
#812392
1.
#820000
0!
1'
#820679
08
#822392
0.
#830000
1!
0'
#830514
18
#832392
1.
#840000
0!
1'
#840679
08
#842392
0.
#850000
1!
0'
#850514
18
#852392
1.
#860000
0!
1'
#860679
08
#862392
0.
#870000
1!
0'
#870514
18
#872392
1.
#880000
0!
1'
#880679
08
#882392
0.
#890000
1!
0'
#890514
18
#892392
1.
#900000
0!
1'
#900679
08
#902392
0.
#906831
05!
00!
#908709
09
#910000
1!
0'
#910514
18
#912392
1.
#920000
0!
1'
#920679
08
#922392
0.
#930000
1!
0'
#930514
18
#932392
1.
#940000
0!
1'
#940679
08
#942392
0.
#950000
1!
0'
#950514
18
#952392
1.
#960000
0!
1'
#960679
08
#962392
0.
#970000
1!
0'
#970514
18
#972392
1.
#980000
0!
1'
#980679
08
#982392
0.
#990000
1!
0'
#990514
18
#992392
1.
#1000000
0!
1'
#1000679
08
#1002392
0.
#1006831
15!
10!
#1008727
19
#1010000
1!
0'
#1010464
1+!
#1010514
18
#1010833
0;
#1011049
1/
#1012392
1.
#1020000
0!
1'
#1020679
08
#1022392
0.
#1030000
1!
0'
#1030514
18
#1032392
1.
#1040000
0!
1'
#1040679
08
#1042392
0.
#1050000
1!
0'
#1050514
18
#1052392
1.
#1060000
0!
1'
#1060679
08
#1062392
0.
#1070000
1!
0'
#1070514
18
#1072392
1.
#1080000
0!
1'
#1080679
08
#1082392
0.
#1090000
1!
0'
#1090514
18
#1092392
1.
#1100000
0!
1'
#1100679
08
#1102392
0.
#1106831
05!
00!
#1108709
09
#1110000
1!
0'
#1110514
18
#1112392
1.
#1120000
0!
1'
#1120679
08
#1122392
0.
#1130000
1!
0'
#1130514
18
#1132392
1.
#1140000
0!
1'
#1140679
08
#1142392
0.
#1150000
1!
0'
#1150514
18
#1152392
1.
#1160000
0!
1'
#1160679
08
#1162392
0.
#1170000
1!
0'
#1170514
18
#1172392
1.
#1180000
0!
1'
#1180679
08
#1182392
0.
#1190000
1!
0'
#1190514
18
#1192392
1.
#1200000
0!
1'
#1200679
08
#1202392
0.
#1206831
15!
10!
#1208727
19
#1210000
1!
0'
#1210464
1*!
0+!
#1210514
18
#1210817
1;
#1212392
1.
#1220000
0!
1'
#1220679
08
#1222392
0.
#1230000
1!
0'
#1230514
18
#1232392
1.
#1240000
0!
1'
#1240679
08
#1242392
0.
#1250000
1!
0'
#1250514
18
#1252392
1.
#1260000
0!
1'
#1260679
08
#1262392
0.
#1270000
1!
0'
#1270514
18
#1272392
1.
#1280000
0!
1'
#1280679
08
#1282392
0.
#1290000
1!
0'
#1290514
18
#1292392
1.
#1300000
0!
1'
#1300679
08
#1302392
0.
#1306831
05!
00!
#1308709
09
#1310000
1!
0'
#1310514
18
#1312392
1.
#1320000
0!
1'
#1320679
08
#1322392
0.
#1330000
1!
0'
#1330514
18
#1332392
1.
#1340000
0!
1'
#1340679
08
#1342392
0.
#1350000
1!
0'
#1350514
18
#1352392
1.
#1360000
0!
1'
#1360679
08
#1362392
0.
#1370000
1!
0'
#1370514
18
#1372392
1.
#1380000
0!
1'
#1380679
08
#1382392
0.
#1390000
1!
0'
#1390514
18
#1392392
1.
#1400000
0!
1'
#1400679
08
#1402392
0.
#1406831
15!
10!
#1408727
19
#1410000
1!
0'
#1410464
1+!
#1410514
18
#1410833
0;
#1411074
0/
#1411151
1<
#1411209
0>
#1411588
0=
#1411664
10
#1412392
1.
#1420000
0!
1'
#1420679
08
#1422392
0.
#1430000
1!
0'
#1430514
18
#1432392
1.
#1440000
0!
1'
#1440679
08
#1442392
0.
#1450000
1!
0'
#1450514
18
#1452392
1.
#1460000
0!
1'
#1460679
08
#1462392
0.
#1470000
1!
0'
#1470514
18
#1472392
1.
#1480000
0!
1'
#1480679
08
#1482392
0.
#1490000
1!
0'
#1490514
18
#1492392
1.
#1500000
0!
1'
#1500679
08
#1502392
0.
#1506831
05!
00!
#1508709
09
#1510000
1!
0'
#1510514
18
#1512392
1.
#1520000
0!
1'
#1520679
08
#1522392
0.
#1530000
1!
0'
#1530514
18
#1532392
1.
#1540000
0!
1'
#1540679
08
#1542392
0.
#1550000
1!
0'
#1550514
18
#1552392
1.
#1560000
0!
1'
#1560679
08
#1562392
0.
#1570000
1!
0'
#1570514
18
#1572392
1.
#1580000
0!
1'
#1580679
08
#1582392
0.
#1590000
1!
0'
#1590514
18
#1592392
1.
#1600000
0!
1'
#1600679
08
#1602392
0.
#1606831
15!
10!
#1608727
19
#1610000
1!
0'
#1610464
1(!
0*!
0+!
0)!
#1610514
18
#1610817
1;
#1611075
00
#1611105
0<
#1611144
1?
#1611233
1>
#1611291
0?
#1611688
10
#1612392
1.
#1620000
0!
1'
#1620679
08
#1622392
0.
#1630000
1!
0'
#1630514
18
#1632392
1.
#1640000
0!
1'
#1640679
08
#1642392
0.
#1650000
1!
0'
#1650514
18
#1652392
1.
#1660000
0!
1'
#1660679
08
#1662392
0.
#1670000
1!
0'
#1670514
18
#1672392
1.
#1680000
0!
1'
#1680679
08
#1682392
0.
#1690000
1!
0'
#1690514
18
#1692392
1.
#1700000
0!
1'
#1700679
08
#1702392
0.
#1706831
05!
00!
#1708709
09
#1710000
1!
0'
#1710514
18
#1712392
1.
#1720000
0!
1'
#1720679
08
#1722392
0.
#1730000
1!
0'
#1730514
18
#1732392
1.
#1740000
0!
1'
#1740679
08
#1742392
0.
#1750000
1!
0'
#1750514
18
#1752392
1.
#1760000
0!
1'
#1760679
08
#1762392
0.
#1770000
1!
0'
#1770514
18
#1772392
1.
#1780000
0!
1'
#1780679
08
#1782392
0.
#1790000
1!
0'
#1790514
18
#1792392
1.
#1800000
0!
1'
#1800679
08
#1802392
0.
#1806831
15!
10!
#1808727
19
#1810000
1!
0'
#1810464
1+!
#1810514
18
#1810833
0;
#1811049
1/
#1812392
1.
#1820000
0!
1'
#1820679
08
#1822392
0.
#1830000
1!
0'
#1830514
18
#1832392
1.
#1840000
0!
1'
#1840679
08
#1842392
0.
#1850000
1!
0'
#1850514
18
#1852392
1.
#1860000
0!
1'
#1860679
08
#1862392
0.
#1870000
1!
0'
#1870514
18
#1872392
1.
#1880000
0!
1'
#1880679
08
#1882392
0.
#1890000
1!
0'
#1890514
18
#1892392
1.
#1900000
0!
1'
#1900679
08
#1902392
0.
#1906831
05!
00!
#1908709
09
#1910000
1!
0'
#1910514
18
#1912392
1.
#1920000
0!
1'
#1920679
08
#1922392
0.
#1930000
1!
0'
#1930514
18
#1932392
1.
#1940000
0!
1'
#1940679
08
#1942392
0.
#1950000
1!
0'
#1950514
18
#1952392
1.
#1960000
0!
1'
#1960679
08
#1962392
0.
#1970000
1!
0'
#1970514
18
#1972392
1.
#1980000
0!
1'
#1980679
08
#1982392
0.
#1990000
1!
0'
#1990514
18
#1992392
1.
#2000000
0!
1'
#2000679
08
#2002392
0.
#2006831
15!
10!
#2008727
19
#2010000
1!
0'
#2010464
1*!
0+!
#2010514
18
#2010817
1;
#2012392
1.
#2020000
0!
1'
#2020679
08
#2022392
0.
#2030000
1!
0'
#2030514
18
#2032392
1.
#2040000
0!
1'
#2040679
08
#2042392
0.
#2050000
1!
0'
#2050514
18
#2052392
1.
#2060000
0!
1'
#2060679
08
#2062392
0.
#2070000
1!
0'
#2070514
18
#2072392
1.
#2080000
0!
1'
#2080679
08
#2082392
0.
#2090000
1!
0'
#2090514
18
#2092392
1.
#2100000
0!
1'
#2100679
08
#2102392
0.
#2106831
05!
00!
#2108709
09
#2110000
1!
0'
#2110514
18
#2112392
1.
#2120000
0!
1'
#2120679
08
#2122392
0.
#2130000
1!
0'
#2130514
18
#2132392
1.
#2140000
0!
1'
#2140679
08
#2142392
0.
#2150000
1!
0'
#2150514
18
#2152392
1.
#2160000
0!
1'
#2160679
08
#2162392
0.
#2170000
1!
0'
#2170514
18
#2172392
1.
#2180000
0!
1'
#2180679
08
#2182392
0.
#2190000
1!
0'
#2190514
18
#2192392
1.
#2200000
0!
1'
#2200679
08
#2202392
0.
#2206831
15!
10!
#2208727
19
#2210000
1!
0'
#2210464
1+!
#2210514
18
#2210833
0;
#2211074
0/
#2211151
1<
#2211606
1=
#2212392
1.
#2220000
0!
1'
#2220679
08
#2222392
0.
#2230000
1!
0'
#2230514
18
#2232392
1.
#2240000
0!
1'
#2240679
08
#2242392
0.
#2250000
1!
0'
#2250514
18
#2252392
1.
#2260000
0!
1'
#2260679
08
#2262392
0.
#2270000
1!
0'
#2270514
18
#2272392
1.
#2280000
0!
1'
#2280679
08
#2282392
0.
#2290000
1!
0'
#2290514
18
#2292392
1.
#2300000
0!
1'
#2300679
08
#2302392
0.
#2306831
05!
00!
#2308709
09
#2310000
1!
0'
#2310514
18
#2312392
1.
#2320000
0!
1'
#2320679
08
#2322392
0.
#2330000
1!
0'
#2330514
18
#2332392
1.
#2340000
0!
1'
#2340679
08
#2342392
0.
#2350000
1!
0'
#2350514
18
#2352392
1.
#2360000
0!
1'
#2360679
08
#2362392
0.
#2370000
1!
0'
#2370514
18
#2372392
1.
#2380000
0!
1'
#2380679
08
#2382392
0.
#2390000
1!
0'
#2390514
18
#2392392
1.
#2400000
0!
1'
#2400679
08
#2402392
0.
#2406831
15!
10!
#2408727
19
#2410000
1!
0'
#2410464
0*!
0+!
1)!
#2410514
18
#2410817
1;
#2411024
0>
#2411079
0=
#2411082
1?
#2411105
0<
#2411163
1>
#2411221
0?
#2411560
1=
#2412392
1.
#2420000
0!
1'
#2420679
08
#2422392
0.
#2430000
1!
0'
#2430514
18
#2432392
1.
#2440000
0!
1'
#2440679
08
#2442392
0.
#2450000
1!
0'
#2450514
18
#2452392
1.
#2460000
0!
1'
#2460679
08
#2462392
0.
#2470000
1!
0'
#2470514
18
#2472392
1.
#2480000
0!
1'
#2480679
08
#2482392
0.
#2490000
1!
0'
#2490514
18
#2492392
1.
#2500000
0!
1'
#2500679
08
#2502392
0.
#2506831
05!
00!
#2508709
09
#2510000
1!
0'
#2510514
18
#2512392
1.
#2520000
0!
1'
#2520679
08
#2522392
0.
#2530000
1!
0'
#2530514
18
#2532392
1.
#2540000
0!
1'
#2540679
08
#2542392
0.
#2550000
1!
0'
#2550514
18
#2552392
1.
#2560000
0!
1'
#2560679
08
#2562392
0.
#2570000
1!
0'
#2570514
18
#2572392
1.
#2580000
0!
1'
#2580679
08
#2582392
0.
#2590000
1!
0'
#2590514
18
#2592392
1.
#2600000
0!
1'
#2600679
08
#2602392
0.
#2606831
15!
10!
#2608727
19
#2610000
1!
0'
#2610464
1+!
#2610514
18
#2610833
0;
#2611049
1/
#2612392
1.
#2620000
0!
1'
#2620679
08
#2622392
0.
#2630000
1!
0'
#2630514
18
#2632392
1.
#2640000
0!
1'
#2640679
08
#2642392
0.
#2650000
1!
0'
#2650514
18
#2652392
1.
#2660000
0!
1'
#2660679
08
#2662392
0.
#2670000
1!
0'
#2670514
18
#2672392
1.
#2680000
0!
1'
#2680679
08
#2682392
0.
#2690000
1!
0'
#2690514
18
#2692392
1.
#2700000
0!
1'
#2700679
08
#2702392
0.
#2706831
05!
00!
#2708709
09
#2710000
1!
0'
#2710514
18
#2712392
1.
#2720000
0!
1'
#2720679
08
#2722392
0.
#2730000
1!
0'
#2730514
18
#2732392
1.
#2740000
0!
1'
#2740679
08
#2742392
0.
#2750000
1!
0'
#2750514
18
#2752392
1.
#2760000
0!
1'
#2760679
08
#2762392
0.
#2770000
1!
0'
#2770514
18
#2772392
1.
#2780000
0!
1'
#2780679
08
#2782392
0.
#2790000
1!
0'
#2790514
18
#2792392
1.
#2800000
0!
1'
#2800679
08
#2802392
0.
#2806831
15!
10!
#2808727
19
#2810000
1!
0'
#2810464
1*!
0+!
#2810514
18
#2810817
1;
#2812392
1.
#2820000
0!
1'
#2820679
08
#2822392
0.
#2830000
1!
0'
#2830514
18
#2832392
1.
#2840000
0!
1'
#2840679
08
#2842392
0.
#2850000
1!
0'
#2850514
18
#2852392
1.
#2860000
0!
1'
#2860679
08
#2862392
0.
#2870000
1!
0'
#2870514
18
#2872392
1.
#2880000
0!
1'
#2880679
08
#2882392
0.
#2890000
1!
0'
#2890514
18
#2892392
1.
#2900000
0!
1'
#2900679
08
#2902392
0.
#2906831
05!
00!
#2908709
09
#2910000
1!
0'
#2910514
18
#2912392
1.
#2920000
0!
1'
#2920679
08
#2922392
0.
#2930000
1!
0'
#2930514
18
#2932392
1.
#2940000
0!
1'
#2940679
08
#2942392
0.
#2950000
1!
0'
#2950514
18
#2952392
1.
#2960000
0!
1'
#2960679
08
#2962392
0.
#2970000
1!
0'
#2970514
18
#2972392
1.
#2980000
0!
1'
#2980679
08
#2982392
0.
#2990000
1!
0'
#2990514
18
#2992392
1.
#3000000
0!
1'
#3000679
08
#3002392
0.
#3006831
15!
10!
#3008727
19
#3010000
1!
0'
#3010464
1+!
#3010514
18
#3010833
0;
#3011074
0/
#3011151
1<
#3011209
0>
#3011267
1?
#3011588
0=
#3011646
00
#3011722
11
#3012392
1.
#3020000
0!
1'
#3020679
08
#3022392
0.
#3030000
1!
0'
#3030514
18
#3032392
1.
#3040000
0!
1'
#3040679
08
#3042392
0.
#3050000
1!
0'
#3050514
18
#3052392
1.
#3060000
0!
1'
#3060679
08
#3062392
0.
#3070000
1!
0'
#3070514
18
#3072392
1.
#3080000
0!
1'
#3080679
08
#3082392
0.
#3090000
1!
0'
#3090514
18
#3092392
1.
#3100000
0!
1'
#3100679
08
#3102392
0.
#3106831
05!
00!
#3108709
09
#3110000
1!
0'
#3110514
18
#3112392
1.
#3120000
0!
1'
#3120679
08
#3122392
0.
#3130000
1!
0'
#3130514
18
#3132392
1.
#3140000
0!
1'
#3140679
08
#3142392
0.
#3150000
1!
0'
#3150514
18
#3152392
1.
#3160000
0!
1'
#3160679
08
#3162392
0.
#3170000
1!
0'
#3170514
18
#3172392
1.
#3180000
0!
1'
#3180679
08
#3182392
0.
#3190000
1!
0'
#3190514
18
#3192392
1.
#3200000
0!
1'
#3200679
08
#3202392
0.
#3206831
15!
10!
#3208727
19
#3210000
1!
0'
#3210464
1'!
0(!
0*!
0+!
0)!
#3210514
18
#3210817
1;
#3211023
0@
#3211076
01
#3211105
0<
#3211110
0?
#3211149
10
#3211168
1@
#3211233
1>
#3211565
11
#3211670
00
#3212392
1.
#3220000
0!
1'
#3220679
08
#3222392
0.
#3230000
1!
0'
#3230514
18
#3232392
1.
#3240000
0!
1'
#3240679
08
#3242392
0.
#3250000
1!
0'
#3250514
18
#3252392
1.
#3260000
0!
1'
#3260679
08
#3262392
0.
#3270000
1!
0'
#3270514
18
#3272392
1.
#3280000
0!
1'
#3280679
08
#3282392
0.
#3290000
1!
0'
#3290514
18
#3292392
1.
#3300000
0!
1'
#3300679
08
#3302392
0.
#3306831
05!
00!
#3308709
09
#3310000
1!
0'
#3310514
18
#3312392
1.
#3320000
0!
1'
#3320679
08
#3322392
0.
#3330000
1!
0'
#3330514
18
#3332392
1.
#3340000
0!
1'
#3340679
08
#3342392
0.
#3350000
1!
0'
#3350514
18
#3352392
1.
#3360000
0!
1'
#3360679
08
#3362392
0.
#3370000
1!
0'
#3370514
18
#3372392
1.
#3380000
0!
1'
#3380679
08
#3382392
0.
#3390000
1!
0'
#3390514
18
#3392392
1.
#3400000
0!
1'
#3400679
08
#3402392
0.
#3406831
15!
10!
#3408727
19
#3410000
1!
0'
#3410464
1+!
#3410514
18
#3410833
0;
#3411049
1/
#3412392
1.
#3420000
0!
1'
#3420679
08
#3422392
0.
#3430000
1!
0'
#3430514
18
#3432392
1.
#3440000
0!
1'
#3440679
08
#3442392
0.
#3450000
1!
0'
#3450514
18
#3452392
1.
#3460000
0!
1'
#3460679
08
#3462392
0.
#3470000
1!
0'
#3470514
18
#3472392
1.
#3480000
0!
1'
#3480679
08
#3482392
0.
#3490000
1!
0'
#3490514
18
#3492392
1.
#3500000
0!
1'
#3500679
08
#3502392
0.
#3506831
05!
00!
#3508709
09
#3510000
1!
0'
#3510514
18
#3512392
1.
#3520000
0!
1'
#3520679
08
#3522392
0.
#3530000
1!
0'
#3530514
18
#3532392
1.
#3540000
0!
1'
#3540679
08
#3542392
0.
#3550000
1!
0'
#3550514
18
#3552392
1.
#3560000
0!
1'
#3560679
08
#3562392
0.
#3570000
1!
0'
#3570514
18
#3572392
1.
#3580000
0!
1'
#3580679
08
#3582392
0.
#3590000
1!
0'
#3590514
18
#3592392
1.
#3600000
0!
1'
#3600679
08
#3602392
0.
#3606831
15!
10!
#3608727
19
#3610000
1!
0'
#3610464
1*!
0+!
#3610514
18
#3610817
1;
#3612392
1.
#3620000
0!
1'
#3620679
08
#3622392
0.
#3630000
1!
0'
#3630514
18
#3632392
1.
#3640000
0!
1'
#3640679
08
#3642392
0.
#3650000
1!
0'
#3650514
18
#3652392
1.
#3660000
0!
1'
#3660679
08
#3662392
0.
#3670000
1!
0'
#3670514
18
#3672392
1.
#3680000
0!
1'
#3680679
08
#3682392
0.
#3690000
1!
0'
#3690514
18
#3692392
1.
#3700000
0!
1'
#3700679
08
#3702392
0.
#3706831
05!
00!
#3708709
09
#3710000
1!
0'
#3710514
18
#3712392
1.
#3720000
0!
1'
#3720679
08
#3722392
0.
#3730000
1!
0'
#3730514
18
#3732392
1.
#3740000
0!
1'
#3740679
08
#3742392
0.
#3750000
1!
0'
#3750514
18
#3752392
1.
#3760000
0!
1'
#3760679
08
#3762392
0.
#3770000
1!
0'
#3770514
18
#3772392
1.
#3780000
0!
1'
#3780679
08
#3782392
0.
#3790000
1!
0'
#3790514
18
#3792392
1.
#3800000
0!
1'
#3800679
08
#3802392
0.
#3806831
15!
10!
#3808727
19
#3810000
1!
0'
#3810464
1+!
#3810514
18
#3810833
0;
#3811074
0/
#3811151
1<
#3811606
1=
#3812392
1.
#3820000
0!
1'
#3820679
08
#3822392
0.
#3830000
1!
0'
#3830514
18
#3832392
1.
#3840000
0!
1'
#3840679
08
#3842392
0.
